{
 "custom_fields": [],
 "custom_perms": [],
 "doctype": "Staffing Plan",
 "property_setters": [
  {
   "_assign": null,
   "_comments": null,
   "_liked_by": null,
   "_user_tags": null,
   "creation": "2021-08-04 21:22:08.693179",
   "default_value": null,
   "doc_type": "Staffing Plan",
   "docstatus": 0,
   "doctype_or_field": "DocField",
   "field_name": "department",
   "idx": 0,
   "modified": "2021-08-04 21:22:08.693179",
   "modified_by": "Administrator",
   "name": "Staffing Plan-department-hidden",
   "owner": "Administrator",
   "parent": null,
   "parentfield": null,
   "parenttype": null,
   "property": "hidden",
   "property_type": "Check",
   "row_name": null,
   "value": "1"
  },
  {
   "_assign": null,
   "_comments": null,
   "_liked_by": null,
   "_user_tags": null,
   "creation": "2021-07-29 12:37:53.537510",
   "default_value": null,
   "doc_type": "Staffing Plan",
   "docstatus": 0,
   "doctype_or_field": "DocField",
   "field_name": "staffing_plan_details",
   "idx": 0,
   "modified": "2021-07-29 12:37:53.537510",
   "modified_by": "Administrator",
   "name": "Staffing Plan-staffing_plan_details-bold",
   "owner": "Administrator",
   "parent": null,
   "parentfield": null,
   "parenttype": null,
   "property": "bold",
   "property_type": "Check",
   "row_name": null,
   "value": "1"
  },
  {
   "_assign": null,
   "_comments": null,
   "_liked_by": null,
   "_user_tags": null,
   "creation": "2021-07-29 12:37:35.808153",
   "default_value": null,
   "doc_type": "Staffing Plan",
   "docstatus": 0,
   "doctype_or_field": "DocField",
   "field_name": "staffing_plan_details",
   "idx": 0,
   "modified": "2021-07-29 12:37:35.808153",
   "modified_by": "Administrator",
   "name": "Staffing Plan-staffing_plan_details-label",
   "owner": "Administrator",
   "parent": null,
   "parentfield": null,
   "parenttype": null,
   "property": "label",
   "property_type": "Data",
   "row_name": null,
   "value": "Manpower Plan Details"
  }
 ],
 "sync_on_migrate": 1
}